{
  "response": {
    "version":"0.1",
    "termsofService":"http://www.wunderground.com/weather/api/d/terms.html",
    "features": {
      "conditions": 1
    }
  }, 
  "current_observation": {
    "image": {
      "url":"http://icons.wxug.com/graphics/wu2/logo_130x80.png",
      "title":"Weather Underground",
      "link":"http://www.wunderground.com"
    },
    "display_location": {
      "full":"Chepachet, RI",
      "city":"Chepachet",
      "state":"RI",
      "state_name":"Rhode Island",
      "country":"US",
      "country_iso3166":"US",
      "zip":"02814",
      "magic":"1",
      "wmo":"99999",
      "latitude":"41.90999985",
      "longitude":"-71.66999817",
      "elevation":"134.4"
    },
    "observation_location": {
      "full":"Route 44 Chepachet RI, Glocester, Rhode Island",
      "city":"Route 44 Chepachet RI, Glocester",
      "state":"Rhode Island",
      "country":"US",
      "country_iso3166":"US",
      "latitude":"41.920517",
      "longitude":"-71.712753",
      "elevation":"495 ft"
    },
    "estimated": {
    },
    "station_id":"KRIGLOCE7",
    "observation_time":"Last Updated on October 12, 8:57 PM EDT",
    "observation_time_rfc822":"Thu, 12 Oct 2017 20:57:06 -0400",
    "observation_epoch":"1507856226",
    "local_time_rfc822":"Thu, 12 Oct 2017 20:57:10 -0400",
    "local_epoch":"1507856230",
    "local_tz_short":"EDT",
    "local_tz_long":"America/New_York",
    "local_tz_offset":"-0400",
    "weather":"Clear",
    "temperature_string":"41.5 F (5.3 C)",
    "temp_f":41.5,
    "temp_c":5.3,
    "relative_humidity":"95%",
    "wind_string":"Calm",
    "wind_dir":"SSE",
    "wind_degrees":158,
    "wind_mph":0.0,
    "wind_gust_mph":0,
    "wind_kph":0,
    "wind_gust_kph":0,
    "pressure_mb":"1026",
    "pressure_in":"30.30",
    "pressure_trend":"+",
    "dewpoint_string":"40 F (4 C)",
    "dewpoint_f":40,
    "dewpoint_c":4,
    "heat_index_string":"NA",
    "heat_index_f":"NA",
    "heat_index_c":"NA",
    "windchill_string":"42 F (5 C)",
    "windchill_f":"42",
    "windchill_c":"5",
    "feelslike_string":"42 F (5 C)",
    "feelslike_f":"42",
    "feelslike_c":"5",
    "visibility_mi":"10.0",
    "visibility_km":"16.1",
    "solarradiation":"--",
    "UV":"0","precip_1hr_string":"0.00 in ( 0 mm)",
    "precip_1hr_in":"0.00",
    "precip_1hr_metric":" 0",
    "precip_today_string":"0.02 in (1 mm)",
    "precip_today_in":"0.02",
    "precip_today_metric":"1",
    "icon":"clear",
    "icon_url":"http://icons.wxug.com/i/c/k/nt_clear.gif",
    "forecast_url":"http://www.wunderground.com/US/RI/Chepachet.html",
    "history_url":"http://www.wunderground.com/weatherstation/WXDailyHistory.asp?ID=KRIGLOCE7",
    "ob_url":"http://www.wunderground.com/cgi-bin/findweather/getForecast?query=41.920517,-71.712753",
    "nowcast":""
  }
}
